Looking for git in: git
Using git 2.30.2 from git
> git rev-parse --git-dir
Open repository: /home/khoa/Desktop/BaiTap/guessing_game
> git status -z -u
> git symbolic-ref --short HEAD
> git for-each-ref --format=%(refname)%00%(upstream:short)%00%(upstream:track)%00%(objectname) refs/heads/master refs/remotes/master
> git for-each-ref --sort -committerdate --format %(refname) %(objectname) %(*objectname)
> git remote --verbose
> git config --local branch.master.github-pr-owner-number
> git config --get commit.template
> git check-ignore -v -z --stdin
> git config --global user.email
