00:00:00.391345 VirtualBox GUI VM Selector Window 6.1.18 r142142 linux.amd64 (Feb 16 2021 07:45:49) release log
00:00:00.391350 Log opened 2021-03-09T08:32:30.608691000Z
00:00:00.391352 Build Type: release
00:00:00.391356 OS Product: Linux
00:00:00.391359 OS Release: 5.11.4-arch1-1
00:00:00.391361 OS Version: #1 SMP PREEMPT Sun, 07 Mar 2021 18:00:49 +0000
00:00:00.391390 DMI Product Name: 20UES3GH00
00:00:00.391401 DMI Product Version: ThinkPad T14 Gen 1
00:00:00.391409 Firmware type: UEFI
00:00:00.392005 Secure Boot: Disabled
00:00:00.392077 Host RAM: 29814MB (29.1GB) total, 28443MB (27.7GB) available
00:00:00.392083 Executable: /usr/lib/virtualbox/VirtualBox
00:00:00.392085 Process ID: 11031
00:00:00.392087 Package type: LINUX_64BITS_GENERIC (OSE)
00:00:00.392144 Qt version: 5.15.2
00:00:00.405498 GUI: UIMediumEnumerator: Medium-enumeration started...
00:00:00.405531 GUI: UIMediumEnumerator: Medium-enumeration finished!
00:00:00.833524 GUI: UIDesktopWidgetWatchdog::sltHandleHostScreenAvailableGeometryCalculated: Screen 1 work area is actually resized to: 15x40 x 936x1021
00:00:00.833565 GUI: UIDesktopWidgetWatchdog::sltHandleHostScreenAvailableGeometryCalculated: Screen 0 work area is actually resized to: 965x40 x 936x503
00:00:37.937832 GUI: UIMediumEnumerator: Medium with key={{e3c61d56-ee9e-4f20-ab96-d53000a30917}} created
00:00:38.059752 GUI: UIMediumEnumerator: Medium-enumeration finished!
00:01:07.378005 GUI: UIMediumEnumerator: Medium with key={{78487bd8-37bb-4718-8a18-68c9bc7ce2a7}} created
00:01:07.404898 GUI: UIMediumEnumerator: Medium-enumeration finished!
00:01:15.197062 GUI: UIMediumEnumerator: Medium-enumeration finished!
00:01:15.213360 GUI: UIMediumEnumerator: Medium-enumeration finished!
00:01:18.376337 GUI: UIMediumEnumerator: Medium-enumeration finished!
