00:00:00.386354 VirtualBox GUI VM Selector Window 6.1.18 r142142 linux.amd64 (Feb 16 2021 07:45:49) release log
00:00:00.386358 Log opened 2021-03-05T18:47:01.824236000Z
00:00:00.386359 Build Type: release
00:00:00.386363 OS Product: Linux
00:00:00.386365 OS Release: 5.11.2-arch1-1
00:00:00.386367 OS Version: #1 SMP PREEMPT Fri, 26 Feb 2021 18:26:41 +0000
00:00:00.386389 DMI Product Name: 20UES3GH00
00:00:00.386398 DMI Product Version: ThinkPad T14 Gen 1
00:00:00.386403 Firmware type: UEFI
00:00:00.386804 Secure Boot: Disabled
00:00:00.386857 Host RAM: 29878MB (29.1GB) total, 28971MB (28.2GB) available
00:00:00.386862 Executable: /usr/lib/virtualbox/VirtualBox
00:00:00.386864 Process ID: 59820
00:00:00.386866 Package type: LINUX_64BITS_GENERIC (OSE)
00:00:00.386935 Qt version: 5.15.2
00:00:00.405726 GUI: UIMediumEnumerator: Medium-enumeration started...
00:00:00.811513 GUI: UIDesktopWidgetWatchdog::sltHandleHostScreenAvailableGeometryCalculated: Screen 0 work area is actually resized to: 15x40 x 936x1021
00:00:00.833575 GUI: UIMediumEnumerator: Medium-enumeration finished!
