00:00:00.406362 VirtualBox GUI VM Selector Window 6.1.18 r142142 linux.amd64 (Feb 16 2021 07:45:49) release log
00:00:00.406364 Log opened 2021-03-09T02:30:09.329281000Z
00:00:00.406365 Build Type: release
00:00:00.406368 OS Product: Linux
00:00:00.406370 OS Release: 5.11.4-arch1-1
00:00:00.406371 OS Version: #1 SMP PREEMPT Sun, 07 Mar 2021 18:00:49 +0000
00:00:00.406387 DMI Product Name: 20UES3GH00
00:00:00.406392 DMI Product Version: ThinkPad T14 Gen 1
00:00:00.406395 Firmware type: UEFI
00:00:00.406840 Secure Boot: Disabled
00:00:00.406881 Host RAM: 29814MB (29.1GB) total, 28268MB (27.6GB) available
00:00:00.406884 Executable: /usr/lib/virtualbox/VirtualBox
00:00:00.406885 Process ID: 43593
00:00:00.406887 Package type: LINUX_64BITS_GENERIC (OSE)
00:00:00.406926 Qt version: 5.15.2
00:00:00.419115 GUI: UIMediumEnumerator: Medium-enumeration started...
00:00:00.419170 GUI: UIMediumEnumerator: Medium-enumeration finished!
00:00:00.862577 GUI: UIDesktopWidgetWatchdog::sltHandleHostScreenAvailableGeometryCalculated: Screen 0 work area is actually resized to: 5x35 x 1910x1040
