00:00:00.395647 VirtualBox GUI VM Selector Window 6.1.18 r142142 linux.amd64 (Feb 16 2021 07:45:49) release log
00:00:00.395649 Log opened 2021-03-09T01:30:18.819328000Z
00:00:00.395651 Build Type: release
00:00:00.395654 OS Product: Linux
00:00:00.395656 OS Release: 5.11.4-arch1-1
00:00:00.395658 OS Version: #1 SMP PREEMPT Sun, 07 Mar 2021 18:00:49 +0000
00:00:00.395674 DMI Product Name: 20UES3GH00
00:00:00.395679 DMI Product Version: ThinkPad T14 Gen 1
00:00:00.395682 Firmware type: UEFI
00:00:00.396131 Secure Boot: Disabled
00:00:00.396170 Host RAM: 29878MB (29.1GB) total, 15839MB (15.4GB) available
00:00:00.396178 Executable: /usr/lib/virtualbox/VirtualBox
00:00:00.396180 Process ID: 18984
00:00:00.396182 Package type: LINUX_64BITS_GENERIC (OSE)
00:00:00.396217 Qt version: 5.15.2
00:00:00.413229 GUI: UIMediumEnumerator: Medium-enumeration started...
00:00:00.846169 GUI: UIDesktopWidgetWatchdog::sltHandleHostScreenAvailableGeometryCalculated: Screen 0 work area is actually resized to: 5x35 x 1910x1040
00:00:00.879092 GUI: UIMediumEnumerator: Medium-enumeration finished!
