00:00:00.302649 VirtualBox GUI VM Selector Window 6.1.18 r142142 linux.amd64 (Feb 16 2021 07:45:49) release log
00:00:00.302652 Log opened 2021-03-03T14:27:33.931627000Z
00:00:00.302653 Build Type: release
00:00:00.302656 OS Product: Linux
00:00:00.302657 OS Release: 5.11.2-arch1-1
00:00:00.302659 OS Version: #1 SMP PREEMPT Fri, 26 Feb 2021 18:26:41 +0000
00:00:00.302675 DMI Product Name: 20UES3GH00
00:00:00.302680 DMI Product Version: ThinkPad T14 Gen 1
00:00:00.302684 Firmware type: UEFI
00:00:00.303060 Secure Boot: Disabled
00:00:00.303106 Host RAM: 29878MB (29.1GB) total, 27648MB (27.0GB) available
00:00:00.303109 Executable: /usr/lib/virtualbox/VirtualBox
00:00:00.303111 Process ID: 388557
00:00:00.303112 Package type: LINUX_64BITS_GENERIC (OSE)
00:00:00.303151 Qt version: 5.15.2
00:00:00.313054 GUI: UIMediumEnumerator: Medium-enumeration started...
00:00:00.666241 GUI: UIDesktopWidgetWatchdog::sltHandleHostScreenAvailableGeometryCalculated: Screen 1 work area is actually resized to: 15x40 x 936x1021
00:00:00.666296 GUI: UIDesktopWidgetWatchdog::sltHandleHostScreenAvailableGeometryCalculated: Screen 0 work area is actually resized to: 965x40 x 936x503
00:00:00.695516 GUI: UIMediumEnumerator: Medium-enumeration finished!
00:00:40.135211 GUI: UIMediumEnumerator: Medium-enumeration finished!
00:03:43.589533 GUI: UIMediumEnumerator: Medium-enumeration finished!
00:03:43.851219 GUI: UIMediumEnumerator: Medium-enumeration finished!
00:04:24.865869 GUI: UIMediumEnumerator: Medium-enumeration finished!
00:05:24.589430 GUI: UIMediumEnumerator: Medium-enumeration finished!
00:05:54.072763 GUI: UIMediumEnumerator: Medium-enumeration finished!
00:06:05.079553 GUI: UIMediumEnumerator: Medium-enumeration finished!
00:06:10.399370 GUI: UIMediumEnumerator: Medium-enumeration finished!
00:06:16.869678 GUI: UIMediumEnumerator: Medium-enumeration finished!
00:06:17.156740 GUI: UIMediumEnumerator: Medium-enumeration finished!
00:07:59.320875 GUI: UIMediumEnumerator: Medium-enumeration finished!
00:08:24.419588 GUI: UIMediumEnumerator: Medium-enumeration finished!
00:08:39.376545 GUI: UIMediumEnumerator: Medium-enumeration finished!
00:08:53.773058 GUI: UIMediumEnumerator: Medium-enumeration finished!
00:18:33.650097 GUI: UIMediumEnumerator: Medium-enumeration finished!
00:18:33.910871 GUI: UIMediumEnumerator: Medium-enumeration finished!
00:18:38.394671 GUI: UIMediumEnumerator: Medium-enumeration finished!
00:23:46.710136 GUI: UIMediumEnumerator: Medium-enumeration finished!
00:23:46.981069 GUI: UIMediumEnumerator: Medium-enumeration finished!
