00:00:00.378321 VirtualBox GUI VM Selector Window 6.1.18 r142142 linux.amd64 (Feb 16 2021 07:45:49) release log
00:00:00.378324 Log opened 2021-03-03T06:23:56.660032000Z
00:00:00.378325 Build Type: release
00:00:00.378328 OS Product: Linux
00:00:00.378329 OS Release: 5.11.2-arch1-1
00:00:00.378331 OS Version: #1 SMP PREEMPT Fri, 26 Feb 2021 18:26:41 +0000
00:00:00.378348 DMI Product Name: 20UES3GH00
00:00:00.378353 DMI Product Version: ThinkPad T14 Gen 1
00:00:00.378357 Firmware type: UEFI
00:00:00.378773 Secure Boot: Disabled
00:00:00.378812 Host RAM: 29878MB (29.1GB) total, 29280MB (28.5GB) available
00:00:00.378816 Executable: /usr/lib/virtualbox/VirtualBox
00:00:00.378817 Process ID: 2349
00:00:00.378819 Package type: LINUX_64BITS_GENERIC (OSE)
00:00:00.378856 Qt version: 5.15.2
00:00:00.395771 GUI: UIMediumEnumerator: Medium-enumeration started...
00:00:00.811370 GUI: UIDesktopWidgetWatchdog::sltHandleHostScreenAvailableGeometryCalculated: Screen 1 work area is actually resized to: 965x40 x 936x503
00:00:00.811433 GUI: UIDesktopWidgetWatchdog::sltHandleHostScreenAvailableGeometryCalculated: Screen 0 work area is actually resized to: 965x557 x 936x504
00:00:00.843201 GUI: UIMediumEnumerator: Medium-enumeration finished!
00:00:04.889783 GUI: UIMediumEnumerator: Medium-enumeration finished!
00:00:35.194617 GUI: UIMediumEnumerator: Medium-enumeration finished!
00:09:41.374840 GUI: UIMediumEnumerator: Medium-enumeration finished!
00:09:41.378103 GUI: UIMediumEnumerator: Medium-enumeration finished!
00:09:41.506005 GUI: UIMediumEnumerator: Medium-enumeration finished!
00:13:42.805596 GUI: UIMediumEnumerator: Medium-enumeration finished!
00:14:17.955109 GUI: UIMediumEnumerator: Medium-enumeration finished!
00:14:47.672131 GUI: UIMediumEnumerator: Medium-enumeration finished!
00:15:13.744604 GUI: UIMediumEnumerator: Medium-enumeration finished!
00:15:29.420793 GUI: UIMediumEnumerator: Medium-enumeration finished!
00:16:01.449466 GUI: UIMediumEnumerator: Medium-enumeration finished!
00:16:20.103532 GUI: UIMediumEnumerator: Medium-enumeration finished!
00:16:39.461487 GUI: UIMediumEnumerator: Medium-enumeration finished!
00:16:58.965925 GUI: UIMediumEnumerator: Medium-enumeration finished!
00:17:17.278287 GUI: UIMediumEnumerator: Medium-enumeration finished!
00:18:19.676854 GUI: UIMediumEnumerator: Medium-enumeration finished!
00:18:36.642449 GUI: UIMediumEnumerator: Medium-enumeration finished!
00:18:40.021734 GUI: UIMediumEnumerator: Medium-enumeration finished!
00:18:58.462178 GUI: UIMediumEnumerator: Medium-enumeration finished!
00:19:10.657512 GUI: UIMediumEnumerator: Medium-enumeration finished!
00:19:28.228220 GUI: UIMediumEnumerator: Medium-enumeration finished!
00:19:31.123412 GUI: UIMediumEnumerator: Medium-enumeration finished!
00:19:42.883677 GUI: UIMediumEnumerator: Medium-enumeration finished!
00:19:42.950823 GUI: UIMediumEnumerator: Medium-enumeration finished!
00:19:43.047423 GUI: UIMediumEnumerator: Medium-enumeration finished!
00:19:50.563443 GUI: UIMediumEnumerator: Medium-enumeration finished!
00:19:50.649738 GUI: UIMediumEnumerator: Medium-enumeration finished!
00:19:50.745171 GUI: UIMediumEnumerator: Medium-enumeration finished!
00:19:57.526496 GUI: UIMediumEnumerator: Medium-enumeration finished!
00:19:57.605685 GUI: UIMediumEnumerator: Medium-enumeration finished!
00:19:57.644573 GUI: UIMediumEnumerator: Medium-enumeration finished!
00:19:57.705285 GUI: UIMediumEnumerator: Medium-enumeration finished!
00:19:57.737460 GUI: UIMediumEnumerator: Medium-enumeration finished!
00:19:57.794618 GUI: UIMediumEnumerator: Medium-enumeration finished!
00:20:03.244043 GUI: UIMediumEnumerator: Medium-enumeration finished!
00:20:07.294178 GUI: UIMediumEnumerator: Medium-enumeration finished!
00:20:07.424592 GUI: UIMediumEnumerator: Medium-enumeration finished!
00:20:07.526290 GUI: UIMediumEnumerator: Medium-enumeration finished!
00:20:07.617714 GUI: UIMediumEnumerator: Medium-enumeration finished!
00:20:07.734255 GUI: UIMediumEnumerator: Medium-enumeration finished!
00:20:07.812260 GUI: UIMediumEnumerator: Medium-enumeration finished!
00:20:07.934979 GUI: UIMediumEnumerator: Medium-enumeration finished!
00:20:07.953763 GUI: UIMediumEnumerator: Medium-enumeration finished!
00:20:13.422880 GUI: UIMediumEnumerator: Medium-enumeration finished!
00:20:13.553597 GUI: UIMediumEnumerator: Medium-enumeration finished!
00:20:13.636102 GUI: UIMediumEnumerator: Medium-enumeration finished!
00:20:16.605855 GUI: UIMediumEnumerator: Medium-enumeration finished!
00:20:16.899604 GUI: UIMediumEnumerator: Medium-enumeration finished!
00:20:16.997221 GUI: UIMediumEnumerator: Medium-enumeration finished!
00:20:19.911045 GUI: UIMediumEnumerator: Medium-enumeration finished!
00:20:20.230543 GUI: UIMediumEnumerator: Medium-enumeration finished!
00:20:23.083726 GUI: UIMediumEnumerator: Medium-enumeration finished!
00:20:23.214940 GUI: UIMediumEnumerator: Medium-enumeration finished!
00:20:26.081414 GUI: UIMediumEnumerator: Medium-enumeration finished!
00:20:26.251715 GUI: UIMediumEnumerator: Medium-enumeration finished!
00:20:26.810835 GUI: UIMediumEnumerator: Medium-enumeration finished!
00:20:27.688541 GUI: UIMediumEnumerator: Medium-enumeration finished!
00:20:30.025018 GUI: UIMediumEnumerator: Medium-enumeration finished!
00:20:30.362801 GUI: UIMediumEnumerator: Medium-enumeration finished!
00:20:33.116987 GUI: UIMediumEnumerator: Medium-enumeration finished!
00:20:44.710628 GUI: UIMediumEnumerator: Medium-enumeration finished!
00:20:52.034272 GUI: UIMediumEnumerator: Medium-enumeration finished!
00:20:57.711635 GUI: UIMediumEnumerator: Medium-enumeration finished!
00:21:04.382961 GUI: UIMediumEnumerator: Medium-enumeration finished!
00:21:45.647091 GUI: UIMediumEnumerator: Medium-enumeration finished!
00:21:49.023704 GUI: UIMediumEnumerator: Medium-enumeration finished!
00:21:49.169055 GUI: UIMediumEnumerator: Medium-enumeration finished!
00:21:49.250657 GUI: UIMediumEnumerator: Medium-enumeration finished!
00:21:49.308984 GUI: UIMediumEnumerator: Medium-enumeration finished!
00:21:53.964560 GUI: UIMediumEnumerator: Medium-enumeration finished!
00:21:57.264393 GUI: UIMediumEnumerator: Medium-enumeration finished!
00:22:01.787889 GUI: UIMediumEnumerator: Medium-enumeration finished!
00:22:02.792996 GUI: UIMediumEnumerator: Medium-enumeration finished!
00:22:05.111724 GUI: UIMediumEnumerator: Medium-enumeration finished!
00:22:06.720631 GUI: UIMediumEnumerator: Medium-enumeration finished!
00:22:10.036570 GUI: UIMediumEnumerator: Medium-enumeration finished!
00:22:24.967133 GUI: UIMediumEnumerator: Medium-enumeration finished!
00:22:28.286334 GUI: UIMediumEnumerator: Medium-enumeration finished!
00:22:42.133812 GUI: UIMediumEnumerator: Medium-enumeration finished!
00:23:23.335388 GUI: UIMediumEnumerator: Medium-enumeration finished!
00:24:11.515992 GUI: UIMediumEnumerator: Medium-enumeration finished!
00:24:24.918234 GUI: UIMediumEnumerator: Medium-enumeration finished!
00:24:44.999332 GUI: UIMediumEnumerator: Medium-enumeration finished!
00:25:41.180253 GUI: UIMediumEnumerator: Medium-enumeration finished!
