00:00:00.156076 VirtualBox GUI VM Selector Window 6.1.18 r142142 linux.amd64 (Feb 16 2021 07:45:49) release log
00:00:00.156080 Log opened 2021-03-03T06:50:11.194404000Z
00:00:00.156082 Build Type: release
00:00:00.156086 OS Product: Linux
00:00:00.156088 OS Release: 5.11.2-arch1-1
00:00:00.156090 OS Version: #1 SMP PREEMPT Fri, 26 Feb 2021 18:26:41 +0000
00:00:00.156217 DMI Product Name: 20UES3GH00
00:00:00.156253 DMI Product Version: ThinkPad T14 Gen 1
00:00:00.156263 Firmware type: UEFI
00:00:00.156798 Secure Boot: Disabled
00:00:00.156879 Host RAM: 29878MB (29.1GB) total, 28255MB (27.5GB) available
00:00:00.156883 Executable: /usr/lib/virtualbox/VirtualBox
00:00:00.156884 Process ID: 78465
00:00:00.156886 Package type: LINUX_64BITS_GENERIC (OSE)
00:00:00.156951 Qt version: 5.15.2
00:00:00.204152 GUI: UIMediumEnumerator: Medium-enumeration started...
00:00:00.570055 GUI: UIDesktopWidgetWatchdog::sltHandleHostScreenAvailableGeometryCalculated: Screen 1 work area is actually resized to: 2885x40 x 936x503
00:00:00.570100 GUI: UIDesktopWidgetWatchdog::sltHandleHostScreenAvailableGeometryCalculated: Screen 0 work area is actually resized to: 2885x557 x 936x504
00:00:00.642682 GUI: UIMediumEnumerator: Medium-enumeration finished!
00:01:27.743586 GUI: UIMediumEnumerator: Medium-enumeration finished!
00:01:46.998269 GUI: UIMediumEnumerator: Medium-enumeration finished!
00:03:23.307470 GUI: UIMediumEnumerator: Medium-enumeration finished!
00:03:41.104979 GUI: UIMediumEnumerator: Medium-enumeration finished!
00:04:05.227731 GUI: UIMediumEnumerator: Medium-enumeration finished!
00:04:27.516125 GUI: UIMediumEnumerator: Medium-enumeration finished!
00:04:47.193815 GUI: UIMediumEnumerator: Medium-enumeration finished!
00:05:05.006308 GUI: UIMediumEnumerator: Medium-enumeration finished!
00:05:22.062305 GUI: UIMediumEnumerator: Medium-enumeration finished!
00:06:11.480091 GUI: UIMediumEnumerator: Medium-enumeration finished!
00:06:14.837573 GUI: UIMediumEnumerator: Medium-enumeration finished!
00:06:19.495685 GUI: UIMediumEnumerator: Medium-enumeration finished!
00:06:28.938963 GUI: UIMediumEnumerator: Medium-enumeration finished!
00:06:32.250732 GUI: UIMediumEnumerator: Medium-enumeration finished!
00:06:36.752091 GUI: UIMediumEnumerator: Medium-enumeration finished!
00:06:42.165378 GUI: UIMediumEnumerator: Medium-enumeration finished!
00:06:45.508974 GUI: UIMediumEnumerator: Medium-enumeration finished!
00:06:45.686071 GUI: UIMediumEnumerator: Medium-enumeration finished!
00:06:51.455646 GUI: UIMediumEnumerator: Medium-enumeration finished!
00:06:53.318215 GUI: UIMediumEnumerator: Medium-enumeration finished!
00:06:53.611242 GUI: UIMediumEnumerator: Medium-enumeration finished!
00:06:53.688894 GUI: UIMediumEnumerator: Medium-enumeration finished!
00:06:53.789395 GUI: UIMediumEnumerator: Medium-enumeration finished!
00:06:54.876883 GUI: UIMediumEnumerator: Medium-enumeration finished!
00:06:56.773791 GUI: UIMediumEnumerator: Medium-enumeration finished!
00:06:57.015198 GUI: UIMediumEnumerator: Medium-enumeration finished!
00:07:01.402641 GUI: UIMediumEnumerator: Medium-enumeration finished!
00:07:10.782298 GUI: UIMediumEnumerator: Medium-enumeration finished!
00:07:10.917330 GUI: UIMediumEnumerator: Medium-enumeration finished!
00:07:11.007026 GUI: UIMediumEnumerator: Medium-enumeration finished!
00:07:19.079346 GUI: UIMediumEnumerator: Medium-enumeration finished!
00:07:41.327129 GUI: UIMediumEnumerator: Medium-enumeration finished!
00:07:41.579497 GUI: UIMediumEnumerator: Medium-enumeration finished!
00:07:55.372399 GUI: UIMediumEnumerator: Medium-enumeration finished!
00:08:01.935412 GUI: UIMediumEnumerator: Medium-enumeration finished!
00:08:21.798156 GUI: UIMediumEnumerator: Medium-enumeration finished!
00:08:36.951897 GUI: UIMediumEnumerator: Medium-enumeration finished!
00:08:41.220820 GUI: UIMediumEnumerator: Medium-enumeration finished!
00:08:44.603716 GUI: UIMediumEnumerator: Medium-enumeration finished!
00:08:47.506306 GUI: UIMediumEnumerator: Medium-enumeration finished!
00:08:48.388039 GUI: UIMediumEnumerator: Medium-enumeration finished!
00:08:50.986654 GUI: UIMediumEnumerator: Medium-enumeration finished!
00:08:51.221519 GUI: UIMediumEnumerator: Medium-enumeration finished!
00:08:51.249002 GUI: UIMediumEnumerator: Medium-enumeration finished!
00:08:54.589426 GUI: UIMediumEnumerator: Medium-enumeration finished!
00:08:57.016684 GUI: UIMediumEnumerator: Medium-enumeration finished!
00:09:00.484528 GUI: UIMediumEnumerator: Medium-enumeration finished!
00:09:03.368565 GUI: UIMediumEnumerator: Medium-enumeration finished!
00:09:12.451834 GUI: UIMediumEnumerator: Medium-enumeration finished!
00:09:17.628854 GUI: UIMediumEnumerator: Medium-enumeration finished!
00:09:22.780953 GUI: UIMediumEnumerator: Medium-enumeration finished!
00:09:27.835846 GUI: UIMediumEnumerator: Medium-enumeration finished!
00:09:32.576397 GUI: UIMediumEnumerator: Medium-enumeration finished!
00:09:37.874736 GUI: UIMediumEnumerator: Medium-enumeration finished!
00:09:44.446910 GUI: UIMediumEnumerator: Medium-enumeration finished!
00:09:55.420777 GUI: UIMediumEnumerator: Medium-enumeration finished!
00:10:00.861135 GUI: UIMediumEnumerator: Medium-enumeration finished!
00:10:29.592891 GUI: UIMediumEnumerator: Medium-enumeration finished!
00:10:37.548338 GUI: UIMediumEnumerator: Medium-enumeration finished!
00:10:42.755718 GUI: UIMediumEnumerator: Medium-enumeration finished!
00:10:47.073246 GUI: UIMediumEnumerator: Medium-enumeration finished!
00:10:53.265796 GUI: UIMediumEnumerator: Medium-enumeration finished!
00:10:59.383409 GUI: UIMediumEnumerator: Medium-enumeration finished!
00:11:07.530586 GUI: UIMediumEnumerator: Medium-enumeration finished!
00:11:12.268438 GUI: UIMediumEnumerator: Medium-enumeration finished!
00:11:18.121383 GUI: UIMediumEnumerator: Medium-enumeration finished!
00:11:27.640163 GUI: UIMediumEnumerator: Medium-enumeration finished!
00:11:33.170633 GUI: UIMediumEnumerator: Medium-enumeration finished!
00:13:11.416503 GUI: UIMediumEnumerator: Medium-enumeration finished!
00:13:11.467164 GUI: UIMediumEnumerator: Medium-enumeration finished!
00:13:11.530882 GUI: UIMediumEnumerator: Medium-enumeration finished!
00:13:12.717049 GUI: UIMediumEnumerator: Medium-enumeration finished!
00:13:15.520430 GUI: UIMediumEnumerator: Medium-enumeration finished!
00:13:16.470543 GUI: UIMediumEnumerator: Medium-enumeration finished!
00:13:16.633929 GUI: UIMediumEnumerator: Medium-enumeration finished!
00:13:16.782452 GUI: UIMediumEnumerator: Medium-enumeration finished!
00:13:16.942407 GUI: UIMediumEnumerator: Medium-enumeration finished!
00:13:18.819781 GUI: UIMediumEnumerator: Medium-enumeration finished!
00:13:19.868540 GUI: UIMediumEnumerator: Medium-enumeration finished!
00:13:20.217230 GUI: UIMediumEnumerator: Medium-enumeration finished!
00:13:20.331549 GUI: UIMediumEnumerator: Medium-enumeration finished!
00:13:20.416155 GUI: UIMediumEnumerator: Medium-enumeration finished!
00:13:59.857007 GUI: UIMediumEnumerator: Medium-enumeration finished!
00:14:04.648711 GUI: UIMediumEnumerator: Medium-enumeration finished!
00:28:47.208831 GUI: UIMediumEnumerator: Medium-enumeration finished!
00:28:50.510766 GUI: UIMediumEnumerator: Medium-enumeration finished!
00:28:50.742071 GUI: UIMediumEnumerator: Medium-enumeration finished!
00:28:51.056217 GUI: UIMediumEnumerator: Medium-enumeration finished!
00:28:51.301178 GUI: UIMediumEnumerator: Medium-enumeration finished!
00:28:51.490857 GUI: UIMediumEnumerator: Medium-enumeration finished!
00:28:51.981113 GUI: UIMediumEnumerator: Medium-enumeration finished!
00:28:55.327928 GUI: UIMediumEnumerator: Medium-enumeration finished!
00:28:55.473317 GUI: UIMediumEnumerator: Medium-enumeration finished!
00:28:59.585370 GUI: UIMediumEnumerator: Medium-enumeration finished!
00:29:02.907679 GUI: UIMediumEnumerator: Medium-enumeration finished!
00:29:03.026531 GUI: UIMediumEnumerator: Medium-enumeration finished!
00:29:03.112116 GUI: UIMediumEnumerator: Medium-enumeration finished!
00:29:10.983935 GUI: UIMediumEnumerator: Medium-enumeration finished!
00:29:14.266912 GUI: UIMediumEnumerator: Medium-enumeration finished!
00:29:14.406682 GUI: UIMediumEnumerator: Medium-enumeration finished!
00:29:14.562275 GUI: UIMediumEnumerator: Medium-enumeration finished!
00:29:14.619558 GUI: UIMediumEnumerator: Medium-enumeration finished!
00:29:14.730559 GUI: UIMediumEnumerator: Medium-enumeration finished!
00:29:14.783868 GUI: UIMediumEnumerator: Medium-enumeration finished!
00:29:17.551059 GUI: UIMediumEnumerator: Medium-enumeration finished!
00:29:19.831523 GUI: UIMediumEnumerator: Medium-enumeration finished!
00:29:20.969974 GUI: UIMediumEnumerator: Medium-enumeration finished!
00:29:23.144439 GUI: UIMediumEnumerator: Medium-enumeration finished!
00:29:23.190016 GUI: UIMediumEnumerator: Medium-enumeration finished!
00:29:26.206870 GUI: UIMediumEnumerator: Medium-enumeration finished!
00:29:26.714100 GUI: UIMediumEnumerator: Medium-enumeration finished!
00:29:29.519635 GUI: UIMediumEnumerator: Medium-enumeration finished!
00:29:30.022941 GUI: UIMediumEnumerator: Medium-enumeration finished!
00:29:32.837587 GUI: UIMediumEnumerator: Medium-enumeration finished!
00:29:33.054206 GUI: UIMediumEnumerator: Medium-enumeration finished!
00:29:36.366405 GUI: UIMediumEnumerator: Medium-enumeration finished!
00:29:45.330464 GUI: UIMediumEnumerator: Medium-enumeration finished!
00:30:03.432119 GUI: UIMediumEnumerator: Medium-enumeration finished!
00:30:49.046859 GUI: UIMediumEnumerator: Medium-enumeration finished!
