00:00:00.338086 VirtualBox GUI VM Selector Window 6.1.18 r142142 linux.amd64 (Feb 16 2021 07:45:49) release log
00:00:00.338089 Log opened 2021-03-03T13:43:41.729987000Z
00:00:00.338090 Build Type: release
00:00:00.338093 OS Product: Linux
00:00:00.338094 OS Release: 5.11.2-arch1-1
00:00:00.338096 OS Version: #1 SMP PREEMPT Fri, 26 Feb 2021 18:26:41 +0000
00:00:00.338112 DMI Product Name: 20UES3GH00
00:00:00.338117 DMI Product Version: ThinkPad T14 Gen 1
00:00:00.338120 Firmware type: UEFI
00:00:00.338502 Secure Boot: Disabled
00:00:00.338549 Host RAM: 29878MB (29.1GB) total, 26994MB (26.3GB) available
00:00:00.338553 Executable: /usr/lib/virtualbox/VirtualBox
00:00:00.338554 Process ID: 318145
00:00:00.338556 Package type: LINUX_64BITS_GENERIC (OSE)
00:00:00.338597 Qt version: 5.15.2
00:00:00.356561 GUI: UIMediumEnumerator: Medium-enumeration started...
00:00:00.823673 GUI: UIDesktopWidgetWatchdog::sltHandleHostScreenAvailableGeometryCalculated: Screen 1 work area is actually resized to: 965x40 x 936x331
00:00:00.826400 GUI: UIDesktopWidgetWatchdog::sltHandleHostScreenAvailableGeometryCalculated: Screen 0 work area is actually resized to: 965x385 x 936x331
00:00:00.826772 GUI: UIMediumEnumerator: Medium-enumeration finished!
00:00:05.531031 GUI: UIMediumEnumerator: Medium-enumeration finished!
00:01:35.669186 GUI: UIMediumEnumerator: Medium-enumeration finished!
00:01:35.878807 GUI: UIMediumEnumerator: Medium-enumeration finished!
