00:00:00.185952 VirtualBox GUI VM Selector Window 6.1.18 r142142 linux.amd64 (Feb 16 2021 07:45:49) release log
00:00:00.185954 Log opened 2021-03-03T06:49:04.134817000Z
00:00:00.185955 Build Type: release
00:00:00.185958 OS Product: Linux
00:00:00.185959 OS Release: 5.11.2-arch1-1
00:00:00.185960 OS Version: #1 SMP PREEMPT Fri, 26 Feb 2021 18:26:41 +0000
00:00:00.185984 DMI Product Name: 20UES3GH00
00:00:00.185990 DMI Product Version: ThinkPad T14 Gen 1
00:00:00.185995 Firmware type: UEFI
00:00:00.186320 Secure Boot: Disabled
00:00:00.186358 Host RAM: 29878MB (29.1GB) total, 27785MB (27.1GB) available
00:00:00.186361 Executable: /usr/lib/virtualbox/VirtualBox
00:00:00.186362 Process ID: 76618
00:00:00.186363 Package type: LINUX_64BITS_GENERIC (OSE)
00:00:00.186396 Qt version: 5.15.2
00:00:00.221046 GUI: UIDesktopWidgetWatchdog::sltHandleHostScreenAvailableGeometryCalculated: Screen 1 work area is actually resized to: 15x40 x 936x1021
00:00:00.221087 GUI: UIDesktopWidgetWatchdog::sltHandleHostScreenAvailableGeometryCalculated: Screen 0 work area is actually resized to: 965x40 x 936x504
