00:00:00.001309 main     VirtualBox XPCOM Server 6.1.18 r142142 linux.amd64 (Feb 16 2021 07:45:49) release log
00:00:00.001312 main     Log opened 2021-03-09T02:30:09.146589000Z
00:00:00.001314 main     Build Type: release
00:00:00.001316 main     OS Product: Linux
00:00:00.001318 main     OS Release: 5.11.4-arch1-1
00:00:00.001319 main     OS Version: #1 SMP PREEMPT Sun, 07 Mar 2021 18:00:49 +0000
00:00:00.001336 main     DMI Product Name: 20UES3GH00
00:00:00.001341 main     DMI Product Version: ThinkPad T14 Gen 1
00:00:00.001345 main     Firmware type: UEFI
00:00:00.002252 main     Secure Boot: Disabled
00:00:00.002295 main     Host RAM: 29814MB (29.1GB) total, 28268MB (27.6GB) available
00:00:00.002298 main     Executable: /usr/lib/virtualbox/VBoxSVC
00:00:00.002299 main     Process ID: 43667
00:00:00.002301 main     Package type: LINUX_64BITS_GENERIC (OSE)
00:00:00.003483 main     IPC socket path: /tmp/.vbox-khoa-ipc/ipcd
00:00:00.110989 nspr-2   VirtualBox: object creation starts
00:00:00.111109 nspr-2   Home directory: '/home/khoa/.config/VirtualBox'
00:00:00.111434 nspr-2   Loading settings file "/home/khoa/.config/VirtualBox/VirtualBox.xml" with version "1.12-linux"
00:00:00.123493 nspr-2   NetIfAdpCtlOut: VBoxNetAdpCtl: Error while retrieving link speed for wlp3s0: VBoxNetAdpCtl: ioctl failed: Operation not supported
00:00:00.124803 nspr-2   HostDnsMonitor: initializing
00:00:00.125319 nspr-2   NAT: resolv.conf: nameserver 208.67.222.222
00:00:00.125350 nspr-2   NAT: resolv.conf: nameserver 208.67.220.220
00:00:00.125369 nspr-2   HostDnsMonitor: updating information
00:00:00.125404 nspr-2   HostDnsMonitor: old information
00:00:00.125411 nspr-2     no server entries
00:00:00.125417 nspr-2     no domain set
00:00:00.125422 nspr-2     no search string entries
00:00:00.125429 nspr-2   HostDnsMonitor: new information
00:00:00.125434 nspr-2     server 1: 208.67.222.222
00:00:00.125440 nspr-2     server 2: 208.67.220.220
00:00:00.125447 nspr-2     no domain set
00:00:00.125452 nspr-2     no search string entries
00:00:00.130705 nspr-2   VD: VDInit finished with VINF_SUCCESS
00:00:00.131119 nspr-2   ERROR [COM]: aRC=NS_ERROR_FAILURE (0x80004005) aIID={027bc463-929c-40e8-bf16-fea557cd8e7e} aComponent={SystemPropertiesWrap} aText={Cannot determine default Guest Additions ISO location. Most likely they are not available}, preserve=false aResultDetail=0
00:00:00.132298 nspr-2   VirtualBox: object created
00:00:00.964606 nspr-2   Saving settings file "/home/khoa/.config/VirtualBox/VirtualBox.xml" with version "1.12-linux"
00:00:00.970838 nspr-2   Saving settings file "/home/khoa/.config/VirtualBox/VirtualBox.xml" with version "1.12-linux"
00:00:06.483530 main     VirtualBox: object deletion starts
00:00:06.483892 main     HostDnsMonitor: shutting down ...
00:00:06.489790 main     HostDnsMonitor: shut down
00:00:06.635849 Watcher  ERROR [COM]: aRC=E_ACCESSDENIED (0x80070005) aIID={d0a0163f-e254-4e5b-a1f2-011cf991c38d} aComponent={VirtualBoxWrap} aText={The object is not ready}, preserve=false aResultDetail=0
00:00:11.490118 main     {00007fddb00181c0} HostPowerServiceLinux::~HostPowerServiceLinux: RTThreadWait() for 5000 ms failed with VERR_TIMEOUT
00:00:11.490630 main     VirtualBox: object deleted
