00:00:00.002208 main     VirtualBox XPCOM Server 6.1.18 r142142 linux.amd64 (Feb 16 2021 07:45:49) release log
00:00:00.002213 main     Log opened 2021-03-05T18:47:01.646773000Z
00:00:00.002215 main     Build Type: release
00:00:00.002219 main     OS Product: Linux
00:00:00.002221 main     OS Release: 5.11.2-arch1-1
00:00:00.002224 main     OS Version: #1 SMP PREEMPT Fri, 26 Feb 2021 18:26:41 +0000
00:00:00.002250 main     DMI Product Name: 20UES3GH00
00:00:00.002259 main     DMI Product Version: ThinkPad T14 Gen 1
00:00:00.002266 main     Firmware type: UEFI
00:00:00.002729 main     Secure Boot: Disabled
00:00:00.002795 main     Host RAM: 29878MB (29.1GB) total, 28982MB (28.3GB) available
00:00:00.002800 main     Executable: /usr/lib/virtualbox/VBoxSVC
00:00:00.002802 main     Process ID: 59890
00:00:00.002804 main     Package type: LINUX_64BITS_GENERIC (OSE)
00:00:00.005005 main     IPC socket path: /tmp/.vbox-khoa-ipc/ipcd
00:00:00.113055 nspr-2   VirtualBox: object creation starts
00:00:00.113148 nspr-2   Home directory: '/home/khoa/.config/VirtualBox'
00:00:00.113442 nspr-2   Loading settings file "/home/khoa/.config/VirtualBox/VirtualBox.xml" with version "1.12-linux"
00:00:00.123333 nspr-2   NetIfAdpCtlOut: VBoxNetAdpCtl: Error while retrieving link speed for wlp3s0: VBoxNetAdpCtl: ioctl failed: Operation not supported
00:00:00.124221 nspr-2   HostDnsMonitor: initializing
00:00:00.124474 nspr-2   NAT: resolv.conf: nameserver 208.67.222.222
00:00:00.124484 nspr-2   NAT: resolv.conf: nameserver 208.67.220.220
00:00:00.124495 nspr-2   HostDnsMonitor: updating information
00:00:00.124510 nspr-2   HostDnsMonitor: old information
00:00:00.124515 nspr-2     no server entries
00:00:00.124519 nspr-2     no domain set
00:00:00.124523 nspr-2     no search string entries
00:00:00.124528 nspr-2   HostDnsMonitor: new information
00:00:00.124533 nspr-2     server 1: 208.67.222.222
00:00:00.124538 nspr-2     server 2: 208.67.220.220
00:00:00.124543 nspr-2     no domain set
00:00:00.124548 nspr-2     no search string entries
00:00:00.128804 nspr-2   VD: VDInit finished with VINF_SUCCESS
00:00:00.129149 nspr-2   ERROR [COM]: aRC=NS_ERROR_FAILURE (0x80004005) aIID={027bc463-929c-40e8-bf16-fea557cd8e7e} aComponent={SystemPropertiesWrap} aText={Cannot determine default Guest Additions ISO location. Most likely they are not available}, preserve=false aResultDetail=0
00:00:00.133410 nspr-2   Loading settings file "/home/khoa/VirtualBox/Windows 10/Windows 10.vbox" with version "1.17-linux"
00:00:00.134428 nspr-2   VirtualBox: object created
00:00:00.635720 nspr-3   WARNING [COM]: aRC=NS_ERROR_FAILURE (0x80004005) aIID={16ced992-5fdc-4aba-aff5-6a39bbd7c38b} aComponent={HostWrap} aText={VirtualBox is not currently allowed to access USB devices.  You can change this by adding your user to the 'vboxusers' group.  Please see the user manual for a more detailed explanation}, preserve=true  aResultDetail=0
00:00:00.820803 nspr-4   WARNING [COM]: aRC=NS_ERROR_FAILURE (0x80004005) aIID={16ced992-5fdc-4aba-aff5-6a39bbd7c38b} aComponent={HostWrap} aText={VirtualBox is not currently allowed to access USB devices.  You can change this by adding your user to the 'vboxusers' group.  Please see the user manual for a more detailed explanation}, preserve=true  aResultDetail=0
00:00:00.823153 nspr-4   WARNING [COM]: aRC=NS_ERROR_FAILURE (0x80004005) aIID={16ced992-5fdc-4aba-aff5-6a39bbd7c38b} aComponent={HostWrap} aText={VirtualBox is not currently allowed to access USB devices.  You can change this by adding your user to the 'vboxusers' group.  Please see the user manual for a more detailed explanation}, preserve=true  aResultDetail=0
00:00:02.516747 nspr-2   Saving settings file "/home/khoa/.config/VirtualBox/VirtualBox.xml" with version "1.12-linux"
00:00:02.541904 nspr-3   Saving settings file "/home/khoa/.config/VirtualBox/VirtualBox.xml" with version "1.12-linux"
00:00:02.547273 nspr-2   Saving settings file "/home/khoa/.config/VirtualBox/VirtualBox.xml" with version "1.12-linux"
00:00:08.067952 main     VirtualBox: object deletion starts
00:00:08.068038 main     ERROR [COM]: aRC=VBOX_E_OBJECT_IN_USE (0x80bb000c) aIID={ad47ad09-787b-44ab-b343-a082a3f2dfb1} aComponent={MediumWrap} aText={Medium '/home/khoa/VirtualBox/Windows 10/Windows 10.vdi' cannot be closed because it is still attached to 1 virtual machines}, preserve=false aResultDetail=0
00:00:08.068794 main     HostDnsMonitor: shutting down ...
00:00:08.080643 main     HostDnsMonitor: shut down
00:00:08.138544 Watcher  ERROR [COM]: aRC=E_ACCESSDENIED (0x80070005) aIID={d0a0163f-e254-4e5b-a1f2-011cf991c38d} aComponent={VirtualBoxWrap} aText={The object is not ready}, preserve=false aResultDetail=0
00:00:13.081098 main     {00007f59bc017c30} HostPowerServiceLinux::~HostPowerServiceLinux: RTThreadWait() for 5000 ms failed with VERR_TIMEOUT
00:00:13.081762 main     VirtualBox: object deleted
