00:00:00.001804 main     VirtualBox XPCOM Server 6.1.18 r142142 linux.amd64 (Feb 16 2021 07:45:49) release log
00:00:00.001807 main     Log opened 2021-03-09T01:30:18.624160000Z
00:00:00.001809 main     Build Type: release
00:00:00.001811 main     OS Product: Linux
00:00:00.001812 main     OS Release: 5.11.4-arch1-1
00:00:00.001814 main     OS Version: #1 SMP PREEMPT Sun, 07 Mar 2021 18:00:49 +0000
00:00:00.001830 main     DMI Product Name: 20UES3GH00
00:00:00.001834 main     DMI Product Version: ThinkPad T14 Gen 1
00:00:00.001839 main     Firmware type: UEFI
00:00:00.002286 main     Secure Boot: Disabled
00:00:00.002325 main     Host RAM: 29878MB (29.1GB) total, 15840MB (15.4GB) available
00:00:00.002328 main     Executable: /usr/lib/virtualbox/VBoxSVC
00:00:00.002329 main     Process ID: 19030
00:00:00.002331 main     Package type: LINUX_64BITS_GENERIC (OSE)
00:00:00.003522 main     IPC socket path: /tmp/.vbox-khoa-ipc/ipcd
00:00:00.110376 nspr-2   VirtualBox: object creation starts
00:00:00.110452 nspr-2   Home directory: '/home/khoa/.config/VirtualBox'
00:00:00.110692 nspr-2   Loading settings file "/home/khoa/.config/VirtualBox/VirtualBox.xml" with version "1.12-linux"
00:00:00.120983 nspr-2   NetIfAdpCtlOut: VBoxNetAdpCtl: Error while retrieving link speed for wlp3s0: VBoxNetAdpCtl: ioctl failed: Operation not supported
00:00:00.122030 nspr-2   HostDnsMonitor: initializing
00:00:00.122385 nspr-2   NAT: resolv.conf: nameserver 208.67.222.222
00:00:00.122397 nspr-2   NAT: resolv.conf: nameserver 208.67.220.220
00:00:00.122411 nspr-2   HostDnsMonitor: updating information
00:00:00.122426 nspr-2   HostDnsMonitor: old information
00:00:00.122431 nspr-2     no server entries
00:00:00.122438 nspr-2     no domain set
00:00:00.122442 nspr-2     no search string entries
00:00:00.122448 nspr-2   HostDnsMonitor: new information
00:00:00.122453 nspr-2     server 1: 208.67.222.222
00:00:00.122459 nspr-2     server 2: 208.67.220.220
00:00:00.122466 nspr-2     no domain set
00:00:00.122471 nspr-2     no search string entries
00:00:00.126348 nspr-2   VD: VDInit finished with VINF_SUCCESS
00:00:00.126742 nspr-2   ERROR [COM]: aRC=NS_ERROR_FAILURE (0x80004005) aIID={027bc463-929c-40e8-bf16-fea557cd8e7e} aComponent={SystemPropertiesWrap} aText={Cannot determine default Guest Additions ISO location. Most likely they are not available}, preserve=false aResultDetail=0
00:00:00.130651 nspr-2   Loading settings file "/home/khoa/VirtualBox/Windows 10/Windows 10.vbox" with version "1.17-linux"
00:00:00.131487 nspr-2   VirtualBox: object created
00:00:00.691413 nspr-3   WARNING [COM]: aRC=NS_ERROR_FAILURE (0x80004005) aIID={16ced992-5fdc-4aba-aff5-6a39bbd7c38b} aComponent={HostWrap} aText={VirtualBox is not currently allowed to access USB devices.  You can change this by adding your user to the 'vboxusers' group.  Please see the user manual for a more detailed explanation}, preserve=true  aResultDetail=0
00:00:00.932478 nspr-3   WARNING [COM]: aRC=NS_ERROR_FAILURE (0x80004005) aIID={16ced992-5fdc-4aba-aff5-6a39bbd7c38b} aComponent={HostWrap} aText={VirtualBox is not currently allowed to access USB devices.  You can change this by adding your user to the 'vboxusers' group.  Please see the user manual for a more detailed explanation}, preserve=true  aResultDetail=0
00:00:00.935022 nspr-3   WARNING [COM]: aRC=NS_ERROR_FAILURE (0x80004005) aIID={16ced992-5fdc-4aba-aff5-6a39bbd7c38b} aComponent={HostWrap} aText={VirtualBox is not currently allowed to access USB devices.  You can change this by adding your user to the 'vboxusers' group.  Please see the user manual for a more detailed explanation}, preserve=true  aResultDetail=0
00:00:06.425060 nspr-4   Saving settings file "/home/khoa/.config/VirtualBox/VirtualBox.xml" with version "1.12-linux"
00:00:08.043954 nspr-2   Saving settings file "/home/khoa/.config/VirtualBox/VirtualBox.xml" with version "1.12-linux"
00:00:08.057004 nspr-3   Saving settings file "/home/khoa/.config/VirtualBox/VirtualBox.xml" with version "1.12-linux"
00:00:08.075947 nspr-2   Saving settings file "/home/khoa/.config/VirtualBox/VirtualBox.xml" with version "1.12-linux"
00:00:08.083347 nspr-2   Saving settings file "/home/khoa/.config/VirtualBox/VirtualBox.xml" with version "1.12-linux"
00:00:08.087865 nspr-3   Saving settings file "/home/khoa/.config/VirtualBox/VirtualBox.xml" with version "1.12-linux"
00:00:13.602397 main     VirtualBox: object deletion starts
00:00:13.602827 main     HostDnsMonitor: shutting down ...
00:00:13.616129 main     HostDnsMonitor: shut down
00:00:13.636204 Watcher  ERROR [COM]: aRC=E_ACCESSDENIED (0x80070005) aIID={d0a0163f-e254-4e5b-a1f2-011cf991c38d} aComponent={VirtualBoxWrap} aText={The object is not ready}, preserve=false aResultDetail=0
00:00:18.616267 main     {00007f472c019870} HostPowerServiceLinux::~HostPowerServiceLinux: RTThreadWait() for 5000 ms failed with VERR_TIMEOUT
00:00:18.616746 main     VirtualBox: object deleted
