00:00:00.000259 main     VirtualBox XPCOM Server 6.1.18 r142142 linux.amd64 (Feb 16 2021 07:45:49) release log
00:00:00.000262 main     Log opened 2021-03-03T06:17:37.508225000Z
00:00:00.000264 main     Build Type: release
00:00:00.000267 main     OS Product: Linux
00:00:00.000269 main     OS Release: 5.11.2-arch1-1
00:00:00.000271 main     OS Version: #1 SMP PREEMPT Fri, 26 Feb 2021 18:26:41 +0000
00:00:00.000293 main     DMI Product Name: 20UES3GH00
00:00:00.000298 main     DMI Product Version: ThinkPad T14 Gen 1
00:00:00.000302 main     Firmware type: UEFI
00:00:00.000661 main     Secure Boot: Disabled
00:00:00.000704 main     Host RAM: 29878MB (29.1GB) total, 27351MB (26.7GB) available
00:00:00.000708 main     Executable: /usr/lib/virtualbox/VBoxSVC
00:00:00.000710 main     Process ID: 59408
00:00:00.000711 main     Package type: LINUX_64BITS_GENERIC (OSE)
00:00:00.001829 main     IPC socket path: /tmp/.vbox-khoa-ipc/ipcd
00:00:00.106738 nspr-2   VirtualBox: object creation starts
00:00:00.106823 nspr-2   Home directory: '/home/khoa/.config/VirtualBox'
00:00:00.107036 nspr-2   Loading settings file "/home/khoa/.config/VirtualBox/VirtualBox.xml" with version "1.12-linux"
00:00:00.112553 nspr-2   NetIfAdpCtlOut: VBoxNetAdpCtl: Error while retrieving link speed for wlp3s0: VBoxNetAdpCtl: ioctl failed: Operation not supported
00:00:00.113009 nspr-2   HostDnsMonitor: initializing
00:00:00.113421 nspr-2   NAT: resolv.conf: nameserver 208.67.222.222
00:00:00.113447 nspr-2   NAT: resolv.conf: nameserver 208.67.220.220
00:00:00.113460 nspr-2   HostDnsMonitor: updating information
00:00:00.113495 nspr-2   HostDnsMonitor: old information
00:00:00.113502 nspr-2     no server entries
00:00:00.113509 nspr-2     no domain set
00:00:00.113514 nspr-2     no search string entries
00:00:00.113521 nspr-2   HostDnsMonitor: new information
00:00:00.113527 nspr-2     server 1: 208.67.222.222
00:00:00.113533 nspr-2     server 2: 208.67.220.220
00:00:00.113540 nspr-2     no domain set
00:00:00.113545 nspr-2     no search string entries
00:00:00.116377 nspr-2   Failed to open "/dev/vboxdrvu", errno=2, rc=VERR_VM_DRIVER_NOT_INSTALLED
00:00:00.116777 nspr-2   VD: VDInit finished with VINF_SUCCESS
00:00:00.116870 nspr-2   ERROR [COM]: aRC=NS_ERROR_FAILURE (0x80004005) aIID={027bc463-929c-40e8-bf16-fea557cd8e7e} aComponent={SystemPropertiesWrap} aText={Cannot determine default Guest Additions ISO location. Most likely they are not available}, preserve=false aResultDetail=0
00:00:00.122407 nspr-2   Loading settings file "/home/khoa/VirtualBox/Windows 10/Windows 10.vbox" with version "1.15-linux"
00:00:00.122954 nspr-2   VirtualBox: object created
00:00:00.548537 nspr-3   WARNING [COM]: aRC=NS_ERROR_FAILURE (0x80004005) aIID={16ced992-5fdc-4aba-aff5-6a39bbd7c38b} aComponent={HostWrap} aText={VirtualBox is not currently allowed to access USB devices.  You can change this by adding your user to the 'vboxusers' group.  Please see the user manual for a more detailed explanation}, preserve=true  aResultDetail=0
00:00:00.612809 nspr-3   Failed to open "/dev/vboxdrvu", errno=2, rc=VERR_VM_DRIVER_NOT_INSTALLED
00:00:00.766532 nspr-3   WARNING [COM]: aRC=NS_ERROR_FAILURE (0x80004005) aIID={16ced992-5fdc-4aba-aff5-6a39bbd7c38b} aComponent={HostWrap} aText={VirtualBox is not currently allowed to access USB devices.  You can change this by adding your user to the 'vboxusers' group.  Please see the user manual for a more detailed explanation}, preserve=true  aResultDetail=0
00:00:00.768944 nspr-3   WARNING [COM]: aRC=NS_ERROR_FAILURE (0x80004005) aIID={16ced992-5fdc-4aba-aff5-6a39bbd7c38b} aComponent={HostWrap} aText={VirtualBox is not currently allowed to access USB devices.  You can change this by adding your user to the 'vboxusers' group.  Please see the user manual for a more detailed explanation}, preserve=true  aResultDetail=0
00:00:25.418425 nspr-3   Saving settings file "/home/khoa/.config/VirtualBox/VirtualBox.xml" with version "1.12-linux"
00:00:25.428538 nspr-2   Saving settings file "/home/khoa/.config/VirtualBox/VirtualBox.xml" with version "1.12-linux"
00:00:25.439054 nspr-3   Saving settings file "/home/khoa/.config/VirtualBox/VirtualBox.xml" with version "1.12-linux"
00:00:25.442799 nspr-2   Saving settings file "/home/khoa/.config/VirtualBox/VirtualBox.xml" with version "1.12-linux"
00:00:30.954958 main     VirtualBox: object deletion starts
00:00:30.955013 main     ERROR [COM]: aRC=VBOX_E_OBJECT_IN_USE (0x80bb000c) aIID={ad47ad09-787b-44ab-b343-a082a3f2dfb1} aComponent={MediumWrap} aText={Medium '/home/khoa/VirtualBox/Windows 10/Windows 10.vdi' cannot be closed because it is still attached to 1 virtual machines}, preserve=false aResultDetail=0
00:00:30.955375 main     HostDnsMonitor: shutting down ...
00:00:30.959848 main     HostDnsMonitor: shut down
00:00:31.131998 Watcher  ERROR [COM]: aRC=E_ACCESSDENIED (0x80070005) aIID={d0a0163f-e254-4e5b-a1f2-011cf991c38d} aComponent={VirtualBoxWrap} aText={The object is not ready}, preserve=false aResultDetail=0
00:00:35.959991 main     {00007ff3b0017210} HostPowerServiceLinux::~HostPowerServiceLinux: RTThreadWait() for 5000 ms failed with VERR_TIMEOUT
00:00:35.960649 main     VirtualBox: object deleted
